{
  "images": [
    {
      "id": 27983450,
      "name": "1520.4.0 (beta)",
      "distribution": "CoreOS",
      "slug": "coreos-beta",
      "public": true,
      "regions": [
        "nyc1",
        "sfo1",
        "nyc2",
        "ams2",
        "sgp1",
        "lon1",
        "nyc3",
        "ams3",
        "fra1",
        "tor1",
        "sfo2",
        "blr1"
      ],
      "created_at": "2017-09-21T15:31:29Z",
      "min_disk_size": 20,
      "type": "snapshot",
      "size_gigabytes": 0.35
    },
    {
      "id": 18027532,
      "name": "24 x64",
      "distribution": "Fedora",
      "slug": "fedora-24-x64",
      "public": true,
      "regions": [
        "nyc1",
        "sfo1",
        "nyc2",
        "ams2",
        "sgp1",
        "lon1",
        "nyc3",
        "ams3",
        "fra1",
        "tor1",
        "sfo2",
        "blr1"
      ],
      "created_at": "2016-06-21T22:36:10Z",
      "min_disk_size": 20,
      "type": "snapshot",
      "size_gigabytes": 3.22
    },
    {
      "id": 24081356,
      "name": "10.3 x64 zfs",
      "distribution": "FreeBSD",
      "slug": "freebsd-10-3-x64-zfs",
      "public": true,
      "regions": [
        "nyc1",
        "sfo1",
        "nyc2",
        "ams2",
        "sgp1",
        "lon1",
        "nyc3",
        "ams3",
        "fra1",
        "tor1",
        "sfo2",
        "blr1"
      ],
      "created_at": "2017-04-10T23:57:15Z",
      "min_disk_size": 20,
      "type": "snapshot",
      "size_gigabytes": 1.0
    },
    {
      "id": 24081552,
      "name": "10.3 x64",
      "distribution": "FreeBSD",
      "slug": "freebsd-10-3-x64",
      "public": true,
      "regions": [
        "nyc1",
        "sfo1",
        "nyc2",
        "ams2",
        "sgp1",
        "lon1",
        "nyc3",
        "ams3",
        "fra1",
        "tor1",
        "sfo2",
        "blr1"
      ],
      "created_at": "2017-04-11T00:03:44Z",
      "min_disk_size": 20,
      "type": "snapshot",
      "size_gigabytes": 0.95
    },
    {
      "id": 25640707,
      "name": "11.0 x64 ZFS",
      "distribution": "FreeBSD",
      "slug": "freebsd-11-0-x64-zfs",
      "public": true,
      "regions": [
        "nyc1",
        "sfo1",
        "nyc2",
        "ams2",
        "sgp1",
        "lon1",
        "nyc3",
        "ams3",
        "fra1",
        "tor1",
        "sfo2",
        "blr1"
      ],
      "created_at": "2017-06-16T15:44:49Z",
      "min_disk_size": 20,
      "type": "snapshot",
      "size_gigabytes": 0.84
    },
    {
      "id": 25640715,
      "name": "11.0 x64",
      "distribution": "FreeBSD",
      "slug": "freebsd-11-0-x64",
      "public": true,
      "regions": [
        "nyc1",
        "sfo1",
        "nyc2",
        "ams2",
        "sgp1",
        "lon1",
        "nyc3",
        "ams3",
        "fra1",
        "tor1",
        "sfo2",
        "blr1"
      ],
      "created_at": "2017-06-16T15:46:35Z",
      "min_disk_size": 20,
      "type": "snapshot",
      "size_gigabytes": 0.82
    },
    {
      "id": 25718224,
      "name": "6.9 x32",
      "distribution": "CentOS",
      "slug": "centos-6-x32",
      "public": true,
      "regions": [
        "nyc1",
        "sfo1",
        "nyc2",
        "ams2",
        "sgp1",
        "lon1",
        "nyc3",
        "ams3",
        "fra1",
        "tor1",
        "sfo2",
        "blr1"
      ],
      "created_at": "2017-06-19T22:58:07Z",
      "min_disk_size": 20,
      "type": "snapshot",
      "size_gigabytes": 0.32
    },
    {
      "id": 25718228,
      "name": "6.9 x64",
      "distribution": "CentOS",
      "slug": "centos-6-x64",
      "public": true,
      "regions": [
        "nyc1",
        "sfo1",
        "nyc2",
        "ams2",
        "sgp1",
        "lon1",
        "nyc3",
        "ams3",
        "fra1",
        "tor1",
        "sfo2",
        "blr1"
      ],
      "created_at": "2017-06-19T22:58:34Z",
      "min_disk_size": 20,
      "type": "snapshot",
      "size_gigabytes": 0.32
    },
    {
      "id": 25909008,
      "name": "25 Atomic x64",
      "distribution": "Fedora",
      "slug": "fedora-25-x64-atomic",
      "public": true,
      "regions": [
        "nyc1",
        "sfo1",
        "nyc2",
        "ams2",
        "sgp1",
        "lon1",
        "nyc3",
        "ams3",
        "fra1",
        "tor1",
        "sfo2",
        "blr1"
      ],
      "created_at": "2017-06-27T23:49:57Z",
      "min_disk_size": 20,
      "type": "snapshot",
      "size_gigabytes": 0.7
    },
    {
      "id": 26041969,
      "name": "25 x64",
      "distribution": "Fedora",
      "slug": "fedora-25-x64",
      "public": true,
      "regions": [
        "nyc1",
        "sfo1",
        "nyc2",
        "ams2",
        "sgp1",
        "lon1",
        "nyc3",
        "ams3",
        "fra1",
        "tor1",
        "sfo2",
        "blr1"
      ],
      "created_at": "2017-07-03T15:51:43Z",
      "min_disk_size": 20,
      "type": "snapshot",
      "size_gigabytes": 0.19
    },
    {
      "id": 26399442,
      "name": "26 x64",
      "distribution": "Fedora",
      "slug": "fedora-26-x64",
      "public": true,
      "regions": [
        "nyc1",
        "sfo1",
        "nyc2",
        "ams2",
        "sgp1",
        "lon1",
        "nyc3",
        "ams3",
        "fra1",
        "tor1",
        "sfo2",
        "blr1"
      ],
      "created_at": "2017-07-18T16:39:41Z",
      "min_disk_size": 20,
      "type": "snapshot",
      "size_gigabytes": 0.24
    },
    {
      "id": 26505628,
      "name": "9.1 x64",
      "distribution": "Debian",
      "slug": "debian-9-x64",
      "public": true,
      "regions": [
        "nyc1",
        "sfo1",
        "nyc2",
        "ams2",
        "sgp1",
        "lon1",
        "nyc3",
        "ams3",
        "fra1",
        "tor1",
        "sfo2",
        "blr1"
      ],
      "created_at": "2017-07-23T00:29:48Z",
      "min_disk_size": 20,
      "type": "snapshot",
      "size_gigabytes": 0.59
    },
    {
      "id": 26519966,
      "name": "8.9 x32",
      "distribution": "Debian",
      "slug": "debian-8-x32",
      "public": true,
      "regions": [
        "nyc1",
        "sfo1",
        "nyc2",
        "ams2",
        "sgp1",
        "lon1",
        "nyc3",
        "ams3",
        "fra1",
        "tor1",
        "sfo2",
        "blr1"
      ],
      "created_at": "2017-07-23T14:40:13Z",
      "min_disk_size": 20,
      "type": "snapshot",
      "size_gigabytes": 0.38
    },
    {
      "id": 26520803,
      "name": "8.9 x64",
      "distribution": "Debian",
      "slug": "debian-8-x64",
      "public": true,
      "regions": [
        "nyc1",
        "sfo1",
        "nyc2",
        "ams2",
        "sgp1",
        "lon1",
        "nyc3",
        "ams3",
        "fra1",
        "tor1",
        "sfo2",
        "blr1"
      ],
      "created_at": "2017-07-23T17:32:58Z",
      "min_disk_size": 20,
      "type": "snapshot",
      "size_gigabytes": 0.38
    },
    {
      "id": 26599847,
      "name": "26 Atomic x64",
      "distribution": "Fedora",
      "slug": "fedora-26-x64-atomic",
      "public": true,
      "regions": [
        "nyc1",
        "sfo1",
        "nyc2",
        "ams2",
        "sgp1",
        "lon1",
        "nyc3",
        "ams3",
        "fra1",
        "tor1",
        "sfo2",
        "blr1"
      ],
      "created_at": "2017-07-26T22:44:37Z",
      "min_disk_size": 20,
      "type": "snapshot",
      "size_gigabytes": 0.72
    },
    {
      "id": 26671396,
      "name": "11.1 x64",
      "distribution": "FreeBSD",
      "slug": "freebsd-11-1-x64",
      "public": true,
      "regions": [
        "nyc1",
        "sfo1",
        "nyc2",
        "ams2",
        "sgp1",
        "lon1",
        "nyc3",
        "ams3",
        "fra1",
        "tor1",
        "sfo2",
        "blr1"
      ],
      "created_at": "2017-07-29T21:47:10Z",
      "min_disk_size": 20,
      "type": "snapshot",
      "size_gigabytes": 0.6899999999999999
    },
    {
      "id": 26671397,
      "name": "11.1 x64 ZFS",
      "distribution": "FreeBSD",
      "slug": "freebsd-11-1-x64-zfs",
      "public": true,
      "regions": [
        "nyc1",
        "sfo1",
        "nyc2",
        "ams2",
        "sgp1",
        "lon1",
        "nyc3",
        "ams3",
        "fra1",
        "tor1",
        "sfo2",
        "blr1"
      ],
      "created_at": "2017-07-29T21:47:21Z",
      "min_disk_size": 20,
      "type": "snapshot",
      "size_gigabytes": 0.7
    },
    {
      "id": 26767402,
      "name": "14.04.5 x32",
      "distribution": "Ubuntu",
      "slug": "ubuntu-14-04-x32",
      "public": true,
      "regions": [
        "nyc1",
        "sfo1",
        "nyc2",
        "ams2",
        "sgp1",
        "lon1",
        "nyc3",
        "ams3",
        "fra1",
        "tor1",
        "sfo2",
        "blr1"
      ],
      "created_at": "2017-08-02T21:19:03Z",
      "min_disk_size": 20,
      "type": "snapshot",
      "size_gigabytes": 0.26
    },
    {
      "id": 26767465,
      "name": "14.04.5 x64",
      "distribution": "Ubuntu",
      "slug": "ubuntu-14-04-x64",
      "public": true,
      "regions": [
        "nyc1",
        "sfo1",
        "nyc2",
        "ams2",
        "sgp1",
        "lon1",
        "nyc3",
        "ams3",
        "fra1",
        "tor1",
        "sfo2",
        "blr1"
      ],
      "created_at": "2017-08-02T21:20:30Z",
      "min_disk_size": 20,
      "type": "snapshot",
      "size_gigabytes": 0.27
    },
    {
      "id": 27663880,
      "name": "16.04.3 x32",
      "distribution": "Ubuntu",
      "slug": "ubuntu-16-04-x32",
      "public": true,
      "regions": [
        "nyc1",
        "sfo1",
        "nyc2",
        "ams2",
        "sgp1",
        "lon1",
        "nyc3",
        "ams3",
        "fra1",
        "tor1",
        "sfo2",
        "blr1"
      ],
      "created_at": "2017-09-08T14:33:34Z",
      "min_disk_size": 20,
      "type": "snapshot",
      "size_gigabytes": 0.29
    }
  ],
  "links": {
    "pages": {
      "last": "https://api.digitalocean.com/v2/images?page=2&type=distribution",
      "next": "https://api.digitalocean.com/v2/images?page=2&type=distribution"
    }
  },
  "meta": {
    "total": 30
  }
}
